2 Module 2 – biol827_biological_statistics
…
Keep in mind that we also have a few different ways to define columns to be selected. For example:

Data$Participant

 [1] 16 20 29 28  5  7  1 14 13 22 26 30  9 24 11 15 19  4 23  8  3  6 27 25 21
[26] 12 17 10  2 18

Above we have returned the data for a single column. But what about multiple columns?

Data %>% 
  select(Participant, Sex) # column names

# A tibble: 30 × 2
   Participant Sex   
         <dbl> <chr> 
 1          16 Female
 2          20 Female
 3          29 Female
 4          28 Female
 5           5 Female
 6           7 Female
 7           1 Female
 8          14 Female
 9          13 Female
10          22 Female
# ℹ 20 more rows

Data[ , c("Participant", "Sex")]

# A tibble: 30 × 2
   Participant Sex   
         <dbl> <chr> 
 1          16 Female
 2          20 Female
 3          29 Female
 4          28 Female
 5           5 Female
 6           7 Female
 7           1 Female
 8          14 Female
 9          13 Female
10          22 Female
# ℹ 20 more rows
…
